﻿1001,エクスライム,ただのスライム。,0,2,0,2,3,3,9,10
1002,シーア,"ゲーム企画科のマスコット。
中身はなんと…!!",1,0,3,10,8,10,11,23
1003,,,,,,,,,,
1004,,,,,,,,,,
1005,,,,,,,,,,
1006,,,,,,,,,,
1007,,,,,,,,,,
1008,,,,,,,,,,
1009,,,,,,,,,,
1010,,,,,,,,,,
